{
  "project_info": {
    "project_number": "509147896571",
    "project_id": "rectexto-c36ea",
    "storage_bucket": "rectexto-c36ea.appspot.com"
  },
  "client": [
    {
      "client_info": {
        "mobilesdk_app_id": "1:509147896571:android:0f6b76a28d89ff5356ae5e",
        "android_client_info": {
          "package_name": "com.example.reconocimientotexto"
        }
      },
      "oauth_client": [
        {
          "client_id": "509147896571-14gaqs5u47vplkh2tmdldba03mcmod03.apps.googleusercontent.com",
          "client_type": 3
        }
      ],
      "api_key": [
        {
          "current_key": "AIzaSyAtGHnFVo8VO1Y1if3lGaRoReQjnhp6rkY"
        }
      ],
      "services": {
        "appinvite_service": {
          "other_platform_oauth_client": [
            {
              "client_id": "509147896571-14gaqs5u47vplkh2tmdldba03mcmod03.apps.googleusercontent.com",
              "client_type": 3
            }
          ]
        }
      }
    }
  ],
  "configuration_version": "1"
}